Lab3_KS/lab3KC/signals.vcd
$date
     May 27, 2022       12:36:55
$end

$version
 SystemC 2.3.3-Accellera --- May 27 2022 10:41:46
$end

$timescale
     1 ns
$end

$scope module SystemC $end
$var wire    1  aaaaa  CLK       $end
$var real    1  aaaab  In1       $end
$var real    1  aaaac  In2       $end
$var real    1  aaaad  Sum       $end
$var real    1  aaaae  Diff       $end
$var real    1  aaaaf  Prod       $end
$var real    1  aaaag  Quot       $end
$var real    1  aaaah  Pow       $end
$upscope $end
$enddefinitions  $end

$comment
All initial values are dumped below at time 0 sec = 0 timescale units.
$end

$dumpvars
0aaaaa
r12.6 aaaab
r146.4 aaaac
r0 aaaad
r0 aaaae
r0 aaaaf
r0 aaaag
r0 aaaah
$end

#10
1aaaaa
r10.1 aaaab
r142.8 aaaac
r159 aaaad
r-133.8 aaaae

#20
0aaaaa

#30
1aaaaa
r7.6 aaaab
r139.2 aaaac
r152.9 aaaad
r-132.7 aaaae
r-21274.2 aaaaf
r-1.188340807174888 aaaag

#40
0aaaaa

#50
1aaaaa
r5.1 aaaab
r135.6 aaaac
r146.8 aaaad
r-131.6 aaaae
r-20289.83 aaaaf
r-1.152223059532781 aaaag

#60
0aaaaa

#70
1aaaaa
r2.6 aaaab
r132 aaaac
r140.7 aaaad
r-130.5 aaaae
r-19318.88 aaaaf
r-1.115501519756839 aaaag

#80
0aaaaa

#90
1aaaaa
r0.09999999999999964 aaaab
r128.4 aaaac
r134.6 aaaad
r-129.4 aaaae
r-18361.35000000001 aaaaf
r-1.07816091954023 aaaag

#100
0aaaaa

#110
1aaaaa
r-2.4 aaaab
r124.8 aaaac
r128.5 aaaad
r-128.3 aaaae
r-17417.24000000001 aaaaf
r-1.040185471406491 aaaag

#120
0aaaaa

#130
1aaaaa
r-4.9 aaaab
r121.2 aaaac
r122.4 aaaad
r-127.2 aaaae
r-16486.55000000001 aaaaf
r-1.001558846453624 aaaag

#140
0aaaaa

#150
1aaaaa
r-7.4 aaaab
r117.6000000000001 aaaac
r116.3 aaaad
r-126.1000000000001 aaaae
r-15569.28000000001 aaaaf
r-0.9622641509433961 aaaag

#160
0aaaaa

#170
1aaaaa
r-9.9 aaaab
r114.0000000000001 aaaac
r110.2 aaaad
r-125.0000000000001 aaaae
r-14665.43000000001 aaaaf
r-0.9222839016653449 aaaag

#180
0aaaaa

#190
1aaaaa
r-12.4 aaaab
r110.4000000000001 aaaac
r104.1000000000001 aaaad
r-123.9000000000001 aaaae
r-13775.00000000001 aaaaf
r-0.8815999999999999 aaaag

#200
0aaaaa

#210
1aaaaa
r-14.9 aaaab
r106.8000000000001 aaaac
r98.00000000000006 aaaad
r-122.8000000000001 aaaae
r-12897.99000000001 aaaaf
r-0.8401937046004843 aaaag

#220
0aaaaa

#230
1aaaaa
r-17.4 aaaab
r103.2000000000001 aaaac
r91.90000000000006 aaaad
r-121.7000000000001 aaaae
r-12034.40000000001 aaaaf
r-0.7980456026058632 aaaag

#240
0aaaaa

#250
1aaaaa
r-19.9 aaaab
r99.60000000000008 aaaac
r85.80000000000007 aaaad
r-120.6000000000001 aaaae
r-11184.23000000001 aaaaf
r-0.7551355792933443 aaaag

#260
0aaaaa

#270
1aaaaa
r-22.4 aaaab
r96.00000000000009 aaaac
r79.70000000000007 aaaad
r-119.5000000000001 aaaae
r-10347.48000000002 aaaaf
r-0.7114427860696518 aaaag

#280
0aaaaa

#290
1aaaaa
r-24.9 aaaab
r92.40000000000009 aaaac
r73.60000000000008 aaaad
r-118.4000000000001 aaaae
r-9524.150000000016 aaaaf
r-0.6669456066945608 aaaag

#300
0aaaaa

#310
1aaaaa
r-27.4 aaaab
r88.8000000000001 aaaac
r67.50000000000009 aaaad
r-117.3000000000001 aaaae
r-8714.240000000016 aaaaf
r-0.6216216216216218 aaaag

#320
0aaaaa

#330
1aaaaa
r-29.9 aaaab
r85.2000000000001 aaaac
r61.4000000000001 aaaad
r-116.2000000000001 aaaae
r-7917.750000000016 aaaaf
r-0.5754475703324811 aaaag

#340
0aaaaa

#350
1aaaaa
r-32.4 aaaab
r81.60000000000011 aaaac
r55.3000000000001 aaaad
r-115.1000000000001 aaaae
r-7134.680000000018 aaaaf
r-0.5283993115318421 aaaag

#360
0aaaaa

#370
1aaaaa
r-34.9 aaaab
r78.00000000000011 aaaac
r49.20000000000011 aaaad
r-114.0000000000001 aaaae
r-6365.030000000018 aaaaf
r-0.4804517810599483 aaaag

#380
0aaaaa

#390
1aaaaa
r-37.4 aaaab
r74.40000000000012 aaaac
r43.10000000000012 aaaad
r-112.9000000000001 aaaae
r-5608.800000000018 aaaaf
r-0.4315789473684216 aaaag

#400
0aaaaa

#410
1aaaaa
r-39.9 aaaab
r70.80000000000013 aaaac
r37.00000000000012 aaaad
r-111.8000000000001 aaaae
r-4865.990000000018 aaaaf
r-0.381753764393269 aaaag

#420
0aaaaa

#430
1aaaaa
r-42.4 aaaab
r67.20000000000013 aaaac
r30.90000000000013 aaaad
r-110.7000000000001 aaaae
r-4136.600000000019 aaaaf
r-0.3309481216457968 aaaag

#440
0aaaaa

#450
1aaaaa
r-44.9 aaaab
r63.60000000000013 aaaac
r24.80000000000013 aaaad
r-109.6000000000001 aaaae
r-3420.630000000018 aaaaf
r-0.2791327913279141 aaaag

#460
0aaaaa

#470
1aaaaa
r-47.4 aaaab
r60.00000000000013 aaaac
r18.70000000000013 aaaad
r-108.5000000000001 aaaae
r-2718.080000000018 aaaaf
r-0.2262773722627746 aaaag

#480
0aaaaa

#490
1aaaaa
r-49.9 aaaab
r56.40000000000013 aaaac
r12.60000000000013 aaaad
r-107.4000000000001 aaaae
r-2028.950000000017 aaaaf
r-0.1723502304147475 aaaag

#500
0aaaaa

#510
1aaaaa
r-52.4 aaaab
r52.80000000000013 aaaac
r6.500000000000128 aaaad
r-106.3000000000001 aaaae
r-1353.240000000015 aaaaf
r-0.117318435754191 aaaag

#520
0aaaaa

#530
1aaaaa
r-54.9 aaaab
r49.20000000000012 aaaac
r0.4000000000001265 aaaad
r-105.2000000000001 aaaae
r-690.9500000000144 aaaaf
r-0.06114769520225889 aaaag

#540
0aaaaa

#550
1aaaaa
r-57.4 aaaab
r45.60000000000012 aaaac
r-5.699999999999875 aaaad
r-104.1000000000001 aaaae
r-42.08000000001336 aaaaf
r-0.00380228136882249 aaaag

#560
0aaaaa

#570
1aaaaa
r-59.9 aaaab
r42.00000000000012 aaaac
r-11.79999999999988 aaaad
r-103.0000000000001 aaaae
r593.3699999999877 aaaaf
r0.05475504322766444 aaaag

#580
0aaaaa

#590
1aaaaa
r-62.4 aaaab
r38.40000000000012 aaaac
r-17.89999999999988 aaaad
r-101.9000000000001 aaaae
r1215.399999999988 aaaaf
r0.1145631067961152 aaaag
r1.418579117066057 aaaah

#600
0aaaaa

#610
1aaaaa
r-64.90000000000001 aaaab
r34.80000000000012 aaaac
r-23.99999999999988 aaaad
r-100.8000000000001 aaaae
r1824.00999999999 aaaaf
r0.1756624141315001 aaaag
r2.256290520714033 aaaah

#620
0aaaaa

#630
1aaaaa
r-67.40000000000001 aaaab
r31.20000000000012 aaaac
r-30.09999999999989 aaaad
r-99.70000000000013 aaaae
r2419.199999999991 aaaaf
r0.2380952380952366 aaaag
r3.739727114219859 aaaah

#640
0aaaaa

#650
1aaaaa
r-69.90000000000001 aaaab
r27.60000000000012 aaaac
r-36.19999999999989 aaaad
r-98.60000000000012 aaaae
r3000.969999999993 aaaaf
r0.3019057171514529 aaaag
r6.391990732270989 aaaah

#660
0aaaaa

#670
1aaaaa
r-72.40000000000001 aaaab
r24.00000000000011 aaaac
r-42.29999999999989 aaaad
r-97.50000000000011 aaaae
r3569.319999999993 aaaaf
r0.3671399594320471 aaaag
r11.21515224153388 aaaah

#680
0aaaaa

#690
1aaaaa
r-74.90000000000001 aaaab
r20.40000000000011 aaaac
r-48.39999999999989 aaaad
r-96.40000000000012 aaaae
r4124.249999999995 aaaaf
r0.4338461538461522 aaaag
r20.15097624341321 aaaah

#700
0aaaaa

#710
1aaaaa
r-77.40000000000001 aaaab
r16.80000000000011 aaaac
r-54.49999999999989 aaaad
r-95.30000000000013 aaaae
r4665.759999999996 aaaaf
r0.5020746887966787 aaaag
r37.02572027220437 aaaah

#720
0aaaaa

#730
1aaaaa
r-79.90000000000001 aaaab
r13.20000000000011 aaaac
r-60.59999999999989 aaaad
r-94.20000000000012 aaaae
r5193.849999999997 aaaaf
r0.571878279118571 aaaag
r69.51412651352739 aaaah

#740
0aaaaa

#750
1aaaaa
r-82.40000000000001 aaaab
r9.600000000000112 aaaac
r-66.69999999999989 aaaad
r-93.10000000000012 aaaae
r5708.519999999997 aaaaf
r0.6433121019108261 aaaag
r133.2931053249823 aaaah

#760
0aaaaa

#770
1aaaaa
r-84.90000000000001 aaaab
r6.000000000000112 aaaac
r-72.7999999999999 aaaad
r-92.00000000000011 aaaae
r6209.769999999998 aaaaf
r0.7164339419978496 aaaag
r260.9859007132317 aaaah

#780
0aaaaa

#790
1aaaaa
r-87.40000000000001 aaaab
r2.400000000000112 aaaac
r-78.89999999999989 aaaad
r-90.90000000000012 aaaae
r6697.599999999999 aaaaf
r0.7913043478260848 aaaag
r521.7807388899685 aaaah

#800
0aaaaa

#810
1aaaaa
r-89.90000000000001 aaaab
r-1.199999999999888 aaaac
r-84.9999999999999 aaaad
r-89.80000000000011 aaaae
r7172.009999999999 aaaaf
r0.8679867986798656 aaaag
r1065.286694429849 aaaah

#820
0aaaaa

#830
1aaaaa
r-92.40000000000001 aaaab
r-4.799999999999889 aaaac
r-91.09999999999989 aaaad
r-88.70000000000012 aaaae
r7633.000000000001 aaaaf
r0.9465478841870801 aaaag
r2221.495254619698 aaaah

#840
0aaaaa

#850
1aaaaa
r-94.90000000000001 aaaab
r-8.399999999999888 aaaac
r-97.19999999999989 aaaad
r-87.60000000000012 aaaae
r8080.570000000002 aaaaf
r1.027057497181508 aaaag
r4733.223210870333 aaaah

#860
0aaaaa

#870
1aaaaa
r-97.40000000000001 aaaab
r-11.99999999999989 aaaac
r-103.2999999999999 aaaad
r-86.50000000000011 aaaae
r8514.720000000003 aaaaf
r1.109589041095888 aaaag
r10307.83831198692 aaaah

#880
0aaaaa

#890
1aaaaa
r-99.90000000000001 aaaab
r-15.59999999999989 aaaac
r-109.3999999999999 aaaad
r-85.40000000000012 aaaae
r8935.450000000003 aaaaf
r1.194219653179188 aaaag
r22954.82432392634 aaaah

#900
0aaaaa

#910
1aaaaa
r-102.4 aaaab
r-19.19999999999989 aaaac
r-115.4999999999999 aaaad
r-84.30000000000013 aaaae
r9342.760000000004 aaaaf
r1.281030444964868 aaaag
r52299.90397605718 aaaah

#920
0aaaaa

#930
1aaaaa
r-104.9 aaaab
r-22.79999999999989 aaaac
r-121.5999999999999 aaaad
r-83.20000000000012 aaaae
r9736.650000000005 aaaaf
r1.370106761565833 aaaag
r121983.0822392431 aaaah

#940
0aaaaa

#950
1aaaaa
r-107.4 aaaab
r-26.39999999999989 aaaac
r-127.6999999999999 aaaad
r-82.10000000000011 aaaae
r10117.12000000001 aaaaf
r1.461538461538458 aaaag
r291438.48758646 aaaah

#960
0aaaaa

#970
1aaaaa
r-109.9 aaaab
r-29.99999999999989 aaaac
r-133.7999999999999 aaaad
r-81.00000000000011 aaaae
r10484.17000000001 aaaaf
r1.55542021924482 aaaag
r713747.6671637843 aaaah

#980
0aaaaa

#990
1aaaaa
r-112.4 aaaab
r-33.59999999999989 aaaac
r-139.8999999999999 aaaad
r-79.90000000000012 aaaae
r10837.80000000001 aaaaf
r1.651851851851848 aaaag
r1793163.789717149 aaaah

